{
  "taskDefinition": {
    "family": "craft1",
    "containerDefinitions": [
      {
        "name": "craft",
        "image": "984969484288.dkr.ecr.us-east-1.amazonaws.com/craft1:latest",
        "cpu": 100,
        "portMappings": [
          {
            "protocol": "tcp",
            "containerPort": 80,
            "hostPort": 80
          }
        ],
        "memory": 128,
        "essential": true
      }
    ]
  }
}
